Propagation_sequence	X	A	C	G	T
GX/CY	A	0.17	0.81	-0.25	
	C	0.47	0.79		0.62
	G	-0.52		-1.11	0.08
	T		0.98	-0.59	0.45
CX/GY	A	0.43	0.75	0.03	
	C	0.79	0.7		0.62
	G	0.11		-0.11	-0.47
	T		0.4	-0.32	-0.12
AX/TY	A	0.61	0.88	0.14	
	C	0.77	1.33		0.64
	G	0.02		-0.13	0.71
	T		0.73	0.07	0.69
TX/AY	A	0.69	0.92	0.42	
	C	1.33	1.05		0.97
	G	0.74		0.44	0.43
	T		0.75	0.34	0.68